%!PS-Adobe-3.0 EPSF-3.0
%%Title: meetinguhr.fig
%%Creator: fig2dev Version 3.2 Patchlevel 5e
%%CreationDate: Thu Jul 26 11:39:03 2018
%%BoundingBox: 0 0 112 112
%Magnification: 1.0000
%%EndComments
%%BeginProlog
/$F2psDict 200 dict def
$F2psDict begin
$F2psDict /mtrx matrix put
/col-1 {0 setgray} bind def
/col0 {0.000 0.000 0.000 srgb} bind def
/col1 {0.000 0.000 1.000 srgb} bind def
/col2 {0.000 1.000 0.000 srgb} bind def
/col3 {0.000 1.000 1.000 srgb} bind def
/col4 {1.000 0.000 0.000 srgb} bind def
/col5 {1.000 0.000 1.000 srgb} bind def
/col6 {1.000 1.000 0.000 srgb} bind def
/col7 {1.000 1.000 1.000 srgb} bind def
/col8 {0.000 0.000 0.560 srgb} bind def
/col9 {0.000 0.000 0.690 srgb} bind def
/col10 {0.000 0.000 0.820 srgb} bind def
/col11 {0.530 0.810 1.000 srgb} bind def
/col12 {0.000 0.560 0.000 srgb} bind def
/col13 {0.000 0.690 0.000 srgb} bind def
/col14 {0.000 0.820 0.000 srgb} bind def
/col15 {0.000 0.560 0.560 srgb} bind def
/col16 {0.000 0.690 0.690 srgb} bind def
/col17 {0.000 0.820 0.820 srgb} bind def
/col18 {0.560 0.000 0.000 srgb} bind def
/col19 {0.690 0.000 0.000 srgb} bind def
/col20 {0.820 0.000 0.000 srgb} bind def
/col21 {0.560 0.000 0.560 srgb} bind def
/col22 {0.690 0.000 0.690 srgb} bind def
/col23 {0.820 0.000 0.820 srgb} bind def
/col24 {0.500 0.190 0.000 srgb} bind def
/col25 {0.630 0.250 0.000 srgb} bind def
/col26 {0.750 0.380 0.000 srgb} bind def
/col27 {1.000 0.500 0.500 srgb} bind def
/col28 {1.000 0.630 0.630 srgb} bind def
/col29 {1.000 0.750 0.750 srgb} bind def
/col30 {1.000 0.880 0.880 srgb} bind def
/col31 {1.000 0.840 0.000 srgb} bind def
/col32 {0.498 0.498 0.498 srgb} bind def

end

/cp {closepath} bind def
/ef {eofill} bind def
/gr {grestore} bind def
/gs {gsave} bind def
/sa {save} bind def
/rs {restore} bind def
/l {lineto} bind def
/m {moveto} bind def
/rm {rmoveto} bind def
/n {newpath} bind def
/s {stroke} bind def
/sh {show} bind def
/slc {setlinecap} bind def
/slj {setlinejoin} bind def
/slw {setlinewidth} bind def
/srgb {setrgbcolor} bind def
/rot {rotate} bind def
/sc {scale} bind def
/sd {setdash} bind def
/ff {findfont} bind def
/sf {setfont} bind def
/scf {scalefont} bind def
/sw {stringwidth} bind def
/tr {translate} bind def
/tnt {dup dup currentrgbcolor
  4 -2 roll dup 1 exch sub 3 -1 roll mul add
  4 -2 roll dup 1 exch sub 3 -1 roll mul add
  4 -2 roll dup 1 exch sub 3 -1 roll mul add srgb}
  bind def
/shd {dup dup currentrgbcolor 4 -2 roll mul 4 -2 roll mul
  4 -2 roll mul srgb} bind def
 /DrawEllipse {
	/endangle exch def
	/startangle exch def
	/yrad exch def
	/xrad exch def
	/y exch def
	/x exch def
	/savematrix mtrx currentmatrix def
	x y tr xrad yrad sc 0 0 1 startangle endangle arc
	closepath
	savematrix setmatrix
	} def

/$F2psBegin {$F2psDict begin /$F2psEnteredState save def} def
/$F2psEnd {$F2psEnteredState restore end} def

/pageheader {
save
newpath 0 112 moveto 0 0 lineto 112 0 lineto 112 112 lineto closepath clip newpath
-213.5 296.7 translate
1 -1 scale
$F2psBegin
10 setmiterlimit
0 slj 0 slc
 0.06299 0.06299 sc
} bind def
/pagefooter {
$F2psEnd
restore
} bind def
%%EndProlog
pageheader
%
% Fig objects follow
%
% 
% here starts figure with depth 53
% Ellipse
45.000 slw
n 4275 3825 855 855 0 360 DrawEllipse gs col7 1.00 shd ef gr gs col0 s gr

% Polyline
0 slj
0 slc
15.000 slw
n 4275 2970 m
 4275 3105 l gs col4 s gr 
% here ends figure;
% 
% here starts figure with depth 50
% Ellipse
7.500 slw
n 3780 3330 45 45 0 360 DrawEllipse gs col32 1.00 shd ef gr gs col32 s gr

% Polyline
0 slj
1 slc
30.000 slw
n 3825 3420 m
 3870 3555 l gs col32 s gr 
% Polyline
n 3735 3420 m
 3690 3555 l gs col32 s gr 
% Polyline
n 3735 3645 m
 3735 3870 l gs col32 s gr 
% Polyline
n 3825 3645 m
 3825 3870 l gs col32 s gr 
% Polyline
n 3735 3420 m
 3825 3420 l gs col32 s gr 
% Polyline
60.000 slw
n 3780 3420 m
 3780 3645 l gs col32 s gr 
% Ellipse
7.500 slw
n 4095 3420 45 45 0 360 DrawEllipse gs col32 1.00 shd ef gr gs col32 s gr

% Polyline
30.000 slw
n 4050 3510 m
 4005 3645 l gs col32 s gr 
% Polyline
n 4050 3735 m
 4050 3960 l gs col32 s gr 
% Polyline
n 4140 3735 m
 4140 3960 l gs col32 s gr 
% Polyline
0 slc
7.500 slw
n 3960 3870 m 4230 3870 l 4095 3555 l 3960 3870 l
 cp gs col32 1.00 shd ef gr gs col32 s gr 
% Polyline
1 slc
30.000 slw
n 4140 3510 m
 4185 3645 l gs col32 s gr 
% Polyline
n 4050 3510 m
 4140 3510 l gs col32 s gr 
% Polyline
0 slc
7.500 slw
n 4050 3510 m 4140 3510 l 4095 3690 l
 cp gs col32 1.00 shd ef gr gs col32 s gr 
% Ellipse
n 3915 3960 45 45 0 360 DrawEllipse gs col32 1.00 shd ef gr gs col32 s gr

% Ellipse
n 3915 4185 90 135 0 360 DrawEllipse gs col32 1.00 shd ef gr gs col32 s gr

% Polyline
1 slc
30.000 slw
n 3960 4050 m
 4005 4185 l gs col32 s gr 
% Polyline
n 3870 4050 m
 3825 4185 l gs col32 s gr 
% Polyline
n 3870 4275 m
 3870 4500 l gs col32 s gr 
% Polyline
n 3960 4275 m
 3960 4500 l gs col32 s gr 
% Polyline
n 3870 4050 m
 3960 4050 l gs col32 s gr 
% Ellipse
7.500 slw
n 4185 4050 45 45 0 360 DrawEllipse gs col32 1.00 shd ef gr gs col32 s gr

% Ellipse
n 4185 4275 90 135 0 360 DrawEllipse gs col32 1.00 shd ef gr gs col32 s gr

% Polyline
30.000 slw
n 4230 4140 m
 4275 4275 l gs col32 s gr 
% Polyline
n 4140 4140 m
 4095 4275 l gs col32 s gr 
% Polyline
n 4140 4365 m
 4140 4590 l gs col32 s gr 
% Polyline
n 4230 4365 m
 4230 4590 l gs col32 s gr 
% Polyline
n 4140 4140 m
 4230 4140 l gs col32 s gr 
% Ellipse
7.500 slw
n 4275 3825 90 90 0 360 DrawEllipse gs 0.00 setgray ef gr gs col0 s gr

% Ellipse
n 4545 3150 45 45 0 360 DrawEllipse gs col32 1.00 shd ef gr gs col32 s gr

% Polyline
0 slc
15.000 slw
n 4275 4545 m
 4275 4680 l gs col4 s gr 
% Polyline
1 slj
7.500 slw
n 4230 3825 m 4635 3735 l 4770 3825 l 4635 3915 l 4275 3825 l
 cp gs 0.00 setgray ef gr gs col0 s gr 
% Polyline
0 slj
15.000 slw
n 3555 3825 m
 3420 3825 l gs col4 s gr 
% Polyline
n 5130 3825 m
 4995 3825 l gs col4 s gr 
% Polyline
7.500 slw
n 4275 3825 m 4185 3420 l 4275 3060 l 4365 3420 l 4275 3780 l
 cp gs 0.00 setgray ef gr gs col0 s gr 
% Polyline
1 slc
30.000 slw
n 4455 3240 m
 4455 3375 l gs col32 s gr 
% Polyline
n 4500 3465 m
 4500 3690 l gs col32 s gr 
% Polyline
n 4635 3240 m
 4635 3375 l gs col32 s gr 
% Polyline
n 4590 3465 m
 4590 3690 l gs col32 s gr 
% Polyline
1 slj
0 slc
7.500 slw
n 4455 3240 m 4635 3240 l 4545 3465 l
 cp gs col32 1.00 shd ef gr gs col32 s gr 
% Polyline
0 slj
1 slc
30.000 slw
n 4455 3240 m
 4635 3240 l gs col32 s gr 
% Polyline
1 slj
0 slc
n 4500 3465 m 4590 3465 l 4545 3240 l 4500 3465 l
 cp gs col32 1.00 shd ef gr gs col32 s gr 
/Times-Roman ff 698.50 scf sf
4320 4500 m
gs 1 -1 sc ($) col24 sh gr
% here ends figure;
pagefooter
showpage
%%Trailer
%EOF
